Spotify
…
spotify %>% filter(track_popularity < 1) 

## # A tibble: 2,703 x 18
##    track_name   track_artist track_popularity Year  playlist_name playlist_genre
##    <chr>        <chr>                   <dbl> <chr> <chr>         <chr>         
##  1 Siren        SUNMI                       0 2018  K-Party Danc~ pop           
##  2 Lollipop (C~ Aqua                        0 2009  90s Dance Hi~ pop           
##  3 Around The ~ Aqua                        0 2009  90s Dance Hi~ pop           
##  4 I'm Yours    Influencers~                0 2018  Christian Da~ pop           
##  5 Talk About ~ Bancali                     0 2018  Pop Dance Hi~ pop           
##  6 You Don't K~ Armand Van ~                0 2012  Pop Dance Hi~ pop           
##  7 TURN         TaeyoungBoy                 0 2019  Best of 2019~ pop           
##  8 Heaven       The Neighbo~                0 2018  Pop Punk | P~ pop           
##  9 Kings of th~ Lonely The ~                0 2014  Pop Punk | P~ pop           
## 10 Gossip       You Me At S~                0 2008  Pop Punk | P~ pop           
## # ... with 2,693 more rows, and 12 more variables: danceability <dbl>,
## #   energy <dbl>, key <dbl>, loudness <dbl>, mode <chr>, speechiness <dbl>,
## #   acousticness <dbl>, instrumentalness <dbl>, liveness <dbl>, valence <dbl>,
## #   tempo <dbl>, duration_ms <dbl>
…
